Place,Sex,Name,CyrillicName,BodyweightKg,Squat1Kg,Squat2Kg,Squat3Kg,Best3SquatKg,Squat4Kg,Bench1Kg,Bench2Kg,Bench3Kg,Best3BenchKg,Bench4Kg,Deadlift1Kg,Deadlift2Kg,Deadlift3Kg,Best3DeadliftKg,Deadlift4Kg,TotalKg,WeightClassKg,Event,Equipment,Tested,Division,Age,BirthDate
1,F,Oksana Shpakova,Оксана Шпакова,83.9,-100,-102.5,102.5,102.5,,55,60,-65,60,,100,120,130,130,,292.5,90,SBD,Raw,No,Masters 40-44,41,1978-04-12
1,M,Gleb Kraev,Глеб Краев,69.7,120,130,140,140,,100,110,120,120,,170,190,-200,190,,450,75,SBD,Raw,No,Teen 16-17,17,2001-08-22
1,M,Murodaliy Shoev,Муродалий Шоев,71.2,140,150,,150,,100,-110,,100,,140,150,160,160,,410,75,SBD,Raw,No,Open,27,1992-01-21
1,M,Ilya Plekhanov,Илья Плеханов,78.4,100,105,-115,105,,75,85,-92.5,85,,110,120,130,130,,320,82.5,SBD,Raw,No,Teen 16-17,16,2003-03-01
1,M,Evgeniy Lesnichiy,Евгений Лесничий,87.4,-140,150,-165,150,,110,120,-130,120,,155,170,185,185,,455,90,SBD,Raw,No,Juniors 20-23,23,1995-08-01
1,M,Igor Chernykh,Игорь Черных,92.3,160,165,167.5,167.5,,100,-105,110,110,,160,170,180,180,,457.5,100,SBD,Raw,No,Teen 16-17,17,2001-07-17
1,M,Dmitriy Plekhanov,Дмитрий Плеханов,97.7,-170,175,-180,175,,145,150,155,155,,170,180,200,200,,530,100,SBD,Raw,No,Open,36,1983-03-13
1,M,Aleksey Danilov,Алексей Данилов,106.5,180,-200,-200,180,,,,,,,,,,,,180,110,S,Wraps,No,Open,38,1980-10-08
1,M,Gleb Kraev,Глеб Краев,69.7,,,,,,100,110,120,120,,170,190,-200,190,,310,75,BD,Raw,No,Teen 16-17,17,2001-08-22
1,F,Evgeniya Kachanova,Евгения Качанова,47.4,,,,,,32.5,35,37.5,37.5,,,,,,,37.5,48,B,Raw,No,Teen 13-15,15,2003-07-11
1,F,Yuliya Berdyugina,Юлия Бердюгина,56.1,,,,,,45,-50,50,50,,,,,,,50,60,B,Raw,No,Open,35,1983-07-20
1,F,Tatyana Vavilova,Татьяна Вавилова,58.3,,,,,,20,25,30,30,,,,,,,30,60,B,Raw,No,Masters 60-64,63,1956-04-05
1,F,Kseniya Kurapova,Ксения Курапова,64.1,,,,,,-40,40,42.5,42.5,,,,,,,42.5,67.5,B,Raw,No,Open,24,1995-03-14
1,F,Nadezhda Levchenko,Надежда Левченко,68,,,,,,65,-70,70,70,,,,,,,70,75,B,Raw,No,Open,34,1984-08-19
1,F,Anna Gubareva,Анна Губарева,91.3,,,,,,40,42.5,45,45,,,,,,,45,90+,B,Raw,No,Open,28,1991-02-21
1,M,Viktor Vodyanoy,Виктор Водяной,42.3,,,,,,20,22.5,25,25,,,,,,,25,52,B,Raw,No,Teen 13-15,13,2006-05-10
2,M,Vladislav Lelikov,Владислав Леликов,29.3,,,,,,15,17.5,20,20,,,,,,,20,52,B,Raw,No,Youth,9,2010-05-11
1,M,Ilya Ishkov,Илья Ишков,64.4,,,,,,55,60,65,65,,,,,,,65,67.5,B,Raw,No,Teen 13-15,15,2003-09-04
2,M,Nikita Ivanov,Никита Иванов,66.7,,,,,,40,45,50,50,,,,,,,50,67.5,B,Raw,No,Teen 13-15,13,2005-11-23
1,M,Gleb Kraev,Глеб Краев,69.7,,,,,,100,110,120,120,,,,,,,120,75,B,Raw,No,Teen 16-17,17,2001-08-22
1,M,Kirill Beregovich,Кирилл Берегович,73.5,,,,,,120,125,130,130,,,,,,,130,75,B,Raw,No,Juniors 20-23,22,1996-12-14
1,M,Oleg Astakhov,Олег Астахов,74.4,,,,,,80,85,-90,85,,,,,,,85,75,B,Raw,No,Masters 50-54,54,1965-04-09
2,M,Evgeniy Tsykalenko,Евгений Цыкаленко,71.2,,,,,,77.5,80,-82.5,80,,,,,,,80,75,B,Raw,No,Masters 55-59,56,1963-06-03
1,M,Vadim Seregin,Вадим Серегин,70.7,,,,,,67.5,70,72.5,72.5,,,,,,,72.5,75,B,Raw,No,Masters 75-79,76,1942-07-15
1,M,Aleksey Chulyukin,Алексей Чулюкин,79.9,,,,,,70,75,80,80,,,,,,,80,82.5,B,Raw,No,Teen 16-17,17,2002-04-04
1,M,Vyacheslav Mamakin,Вячеслав Мамакин,89.3,,,,,,155,160,165,165,,,,,,,165,90,B,Raw,No,Open,32,1987-03-04
2,M,Oleg Ivanov,Олег Іванов,84.1,,,,,,100,110,120,120,,,,,,,120,90,B,Raw,No,Open,34,1984-08-10
1,M,Yuriy Topchiy,Юрий Топчий,86.4,,,,,,100,110,-115,110,,,,,,,110,90,B,Raw,No,Masters 60-64,60,1958-08-25
1,M,Sergey Chernyshov,Сергей Чернышов,93.8,,,,,,90,100,105,105,,,,,,,105,100,B,Raw,No,Juniors 20-23,21,1997-07-26
DQ,M,Evgeniy Asoskov,Евгений Асосков,92.6,,,,,,-140,-140,-140,,,,,,,,,100,B,Raw,No,Open,34,1985-04-22
1,M,Sergey Egorov,Сергей Егоров,96,,,,,,-100,105,110,110,,,,,,,110,100,B,Raw,No,Masters 45-49,47,1971-11-17
1,M,Vyacheslav Dmitrenko,Вячеслав Дмитренко,96.1,,,,,,30,40,42.5,42.5,,,,,,,42.5,100,B,Raw,No,Masters 70-74,72,1947-04-27
1,M,Fedor Nenashev,Федор Ненашев,108.4,,,,,,145,155,167.5,167.5,,,,,,,167.5,110,B,Raw,No,Open,30,1988-10-24
DQ,M,Ivan Sotnikov,Иван Сотников,86.5,,,,,,-235,-235,-235,,,,,,,,,90,B,Multi-ply,No,Open,24,1994-09-22
1,M,Irina Rezvykh,Ирина Резвых,52.9,,,,,,,,,,,60,70,80,80,,80,56,D,Raw,No,Masters 45-49,46,1972-08-10
1,M,Gleb Kraev,Глеб Краев,69.7,,,,,,,,,,,170,190,-200,190,,190,75,D,Raw,No,Teen 16-17,17,2001-08-22
1,M,Mikhail Rybalkin,Михаил Рыбалкин,98.7,,,,,,,,,,,185,192.5,200,200,,200,100,D,Raw,No,Teen 16-17,17,2002-05-17
1,M,Sergey Chernyshov,Сергей Чернышов,93.8,,,,,,,,,,,160,170,175,175,,175,100,D,Raw,No,Juniors 20-23,21,1997-07-26
