Division,WeightClassKg,Place,Name,Team,BodyweightKg,Best3SquatKg,Best3BenchKg,Best3DeadliftKg,TotalKg,Equipment,Event,Sex
Boys,51.71,1,Jordan Ruiz,Seagraves,50.98,156.49,86.18,167.83,410.5,Single-ply,SBD,M
Boys,51.71,2,Michael Ramsey,Memphis,50.53,156.49,74.84,167.83,399.16,Single-ply,SBD,M
Boys,51.71,3,Jonathan Luna,Tulia,51.35,147.42,90.72,156.49,394.63,Single-ply,SBD,M
Boys,51.71,4,Max Obregon,Dilley,51.62,161.03,81.65,142.88,385.55,Single-ply,SBD,M
Boys,55.79,5,Jose Lopez,Godley,51.94,136.08,70.31,165.56,371.95,Single-ply,SBD,M
Boys,55.79,6,Philip Alvarado,Blanco,51.89,138.35,74.84,138.35,351.53,Single-ply,SBD,M
Boys,55.79,7,Jason Samaniego,Altair Rice,51.94,138.35,63.5,147.42,349.27,Single-ply,SBD,M
Boys,51.71,8,Russell Wilcox,Leonard,50.71,138.35,63.5,142.88,344.73,Single-ply,SBD,M
Boys,55.79,9,Austin Peppers,Rice,51.8,124.74,61.23,149.69,335.66,Single-ply,SBD,M
Boys,51.71,10,Jonathan Esquivel,Melissa,51.17,122.47,74.84,131.54,328.85,Single-ply,SBD,M
Boys,51.71,11,Adam Morton,Louise,47.36,122.47,56.7,117.93,297.1,Single-ply,SBD,M
Boys,51.71,12,Chris Dickson,East Bernard,50.58,113.4,63.5,113.4,290.3,Single-ply,SBD,M
Boys,51.71,DQ,Edward Hernandez,Eldorado,50.89,167.83,81.65,,,Single-ply,SBD,M
Boys,51.71,DQ,Jaime Luna,Palmer,50.58,140.61,56.7,,,Single-ply,SBD,M
Boys,55.79,1,Michael Casarez,Three Rivers,54.79,201.85,92.99,192.78,487.61,Single-ply,SBD,M
Boys,59.87,2,D'Montre Brown,Cameron Yoe,56.02,181.44,97.52,190.51,469.47,Single-ply,SBD,M
Boys,59.87,3,Stephen Nelson,Pottsboro,55.97,188.24,97.52,181.44,467.2,Single-ply,SBD,M
Boys,55.79,4,Isaiah Lombrana,Brady,55.57,181.44,102.06,163.29,446.79,Single-ply,SBD,M
Boys,55.79,5,Tyler West,Shelbyville,55.57,176.9,102.06,165.56,444.52,Single-ply,SBD,M
Boys,55.79,6,Sawyer Yandell,Natalia,55.79,183.7,74.84,181.44,439.98,Single-ply,SBD,M
Boys,55.79,7,Gabe Senegal,Little River Academy,55.25,158.76,92.99,179.17,430.91,Single-ply,SBD,M
Boys,55.79,8,Colton Russell,Bosqueville,55.25,172.37,86.18,163.29,421.84,Single-ply,SBD,M
Boys,55.79,9,Brandon Jones,Cumby,55.57,147.42,106.59,163.29,417.3,Single-ply,SBD,M
Boys,55.79,10,Tomas Vega,Alpine,54.79,161.03,81.65,172.37,415.04,Single-ply,SBD,M
Boys,55.79,11,Weston Decker,Peaster,55.43,145.15,86.18,167.83,399.16,Single-ply,SBD,M
Boys,59.87,12,Kisan Valenzuela,Kermit,56.02,149.69,90.72,149.69,390.09,Single-ply,SBD,M
Boys,55.79,13,Trenton Thedford,Vanderbilt Industrial,54.66,138.35,81.65,120.2,340.19,Single-ply,SBD,M
Boys,55.79,14,Isais Gonzales,Anahuac,53.98,136.08,77.11,102.06,315.25,Single-ply,SBD,M
Boys,55.79,DQ,John Starks,Banquete,55.79,163.29,,,,Single-ply,SBD,M
Boys,59.87,1,Darrion McMahan,Stockdale,59.42,217.72,136.08,192.78,546.58,Single-ply,SBD,M
Boys,59.87,2,Edward Garza,Sonora,59.65,229.06,106.59,185.97,521.63,Single-ply,SBD,M
Boys,59.87,3,Jd Franke,Henrietta,59.42,204.12,113.4,192.78,510.29,Single-ply,SBD,M
Boys,59.87,4,Ryan Hurst,San Angelo Grape Creek,59.78,206.38,90.72,199.58,496.68,Single-ply,SBD,M
Boys,59.87,5,Tate Hartley,Buffalo,59.78,192.78,95.25,185.97,474,Single-ply,SBD,M
Boys,59.87,6,Sean Gibson,Whitney,59.65,172.37,104.33,192.78,469.47,Single-ply,SBD,M
Boys,67.13,7,Victor Lara-Cortez,Corrigan-Camden,59.96,172.37,90.72,190.51,453.59,Single-ply,SBD,M
Boys,59.87,8,Taylor Kibodeaux,Buna,59.33,190.51,88.45,172.37,451.32,Single-ply,SBD,M
Boys,59.87,9,Miguel Hernandez,Nixon Smiley,58.06,161.03,88.45,183.7,433.18,Single-ply,SBD,M
Boys,59.87,10,Brady Rose,Mineola,58.69,165.56,81.65,183.7,430.91,Single-ply,SBD,M
Boys,59.87,11,Taylor Ross,Nocona,59.06,142.88,92.99,174.63,410.5,Single-ply,SBD,M
Boys,59.87,DQ,Luis Juarez,Bosqueville,58.88,183.7,108.86,,,Single-ply,SBD,M
Boys,67.13,1,Levi Bamber,Dublin,66,242.67,158.76,233.6,635.03,Single-ply,SBD,M
Boys,67.13,2,Rico Rodriguez,San Diego,65.95,242.67,147.42,235.87,625.96,Single-ply,SBD,M
Boys,67.13,3,Jesus Jaimes,Riesel,65.95,226.8,140.61,215.46,582.87,Single-ply,SBD,M
Boys,67.13,4,Jordy Silguero,Hebbronville,65.09,215.46,129.27,204.12,548.85,Single-ply,SBD,M
Boys,67.13,5,David Calixtro,Teague,65.09,219.99,108.86,213.19,542.04,Single-ply,SBD,M
Boys,67.13,6,Tanner Surratt,Louise,66.68,204.12,120.2,215.46,539.77,Single-ply,SBD,M
Boys,67.13,7,Bryce DeVore,Hawley,66.59,213.19,120.2,204.12,537.51,Single-ply,SBD,M
Boys,67.13,8,Garrett Syfert,Pottsboro,66.45,213.19,117.93,197.31,528.44,Single-ply,SBD,M
Boys,67.13,9,Luis Rangel,Ballinger,65.95,195.04,127.01,197.31,519.36,Single-ply,SBD,M
Boys,67.13,10,Caleb Jones,Van Vleck,66.32,190.51,117.93,190.51,498.95,Single-ply,SBD,M
Boys,67.13,11,Cory Davis,Diana New Diana,66.32,206.38,99.79,192.78,498.95,Single-ply,SBD,M
Boys,74.84,12,Zane Schrader,Olney,67.36,204.12,104.33,183.7,492.15,Single-ply,SBD,M
Boys,74.84,1,Travis Charles,Bishop,69.94,258.55,149.69,249.48,657.71,Single-ply,SBD,M
Boys,74.84,2,Kneeland Donnelly,Hawley,70.4,233.6,142.88,226.8,603.28,Single-ply,SBD,M
Boys,74.84,3,Carlos Charles,Bishop,74.48,235.87,136.08,231.33,603.28,Single-ply,SBD,M
Boys,74.84,4,Caleb Skahan,Caddo Mills,72.3,226.8,136.08,238.14,601.01,Single-ply,SBD,M
Boys,74.84,5,Allan Hale,San Saba,73.39,215.46,142.88,235.87,594.21,Single-ply,SBD,M
Boys,74.84,6,Stephen Lehew,Maypearl,72.35,217.72,163.29,210.92,591.94,Single-ply,SBD,M
Boys,74.84,7,Brennan Sooter,Ponder,72.76,254.01,124.74,213.19,591.94,Single-ply,SBD,M
Boys,74.84,8,Clancy Manuel,Hawley,73.71,240.4,127.01,219.99,587.4,Single-ply,SBD,M
Boys,74.84,9,Tri Hoang,Wichita Falls City View,70.67,213.19,104.33,260.82,578.33,Single-ply,SBD,M
Boys,74.84,10,Darius Battles,Hempstead,71.89,199.58,149.69,226.8,576.06,Single-ply,SBD,M
Boys,74.84,11,Norman James,Wichita Falls City View,74.16,215.46,149.69,201.85,566.99,Single-ply,SBD,M
Boys,74.84,12,Martice Henry,Anahuac,74.48,208.65,124.74,226.8,560.19,Single-ply,SBD,M
Boys,82.1,13,Kendrick Whittington,Anahuac,75.07,181.44,127.01,181.44,489.88,Single-ply,SBD,M
Boys,82.1,1,Jose Dominguez,Buffalo,80.47,263.08,147.42,249.48,659.98,Single-ply,SBD,M
Boys,82.1,2,Marcus Cardenez,Jarrell,80.2,254.01,147.42,240.4,641.83,Single-ply,SBD,M
Boys,82.1,3,Damion Kozak,Bremond,77.93,249.48,158.76,229.06,637.3,Single-ply,SBD,M
Boys,82.1,4,Brandon Johnson,Newton,77.2,258.55,133.81,242.67,635.03,Single-ply,SBD,M
Boys,82.1,5,Ruben Sanchez,Mineola,80.51,213.19,172.37,235.87,621.42,Single-ply,SBD,M
Boys,82.1,6,Kevin Jones #9,Elysian Fields,82.01,233.6,151.95,226.8,612.35,Single-ply,SBD,M
Boys,82.1,7,Roy Saenz,Bishop,81.87,238.14,131.54,240.4,610.08,Single-ply,SBD,M
Boys,82.1,8,Jesse Daniels,Ballinger,80.51,226.8,145.15,235.87,607.81,Single-ply,SBD,M
Boys,82.1,9,David Garza,Cotulla,82.1,219.99,138.35,240.4,598.74,Single-ply,SBD,M
Boys,82.1,10,Ramon Salazar,Jacksboro,80.74,242.67,136.08,215.46,594.21,Single-ply,SBD,M
Boys,82.1,11,OShae Nolan,Wichita Falls City View,81.37,231.33,117.93,244.94,594.21,Single-ply,SBD,M
Boys,82.1,12,Peyton Rodriguez,Coahoma,81.28,226.8,136.08,217.72,580.6,Single-ply,SBD,M
Boys,82.1,13,Chris Sweat,Anahuac,81.65,222.26,140.61,217.72,580.6,Single-ply,SBD,M
Boys,89.81,1,Josh Trumble,Redwater,88.99,276.69,188.24,274.42,739.36,Single-ply,SBD,M
Boys,89.81,2,Aj Alverez,Bishop,89.36,301.64,154.22,274.42,730.28,Single-ply,SBD,M
Boys,89.81,3,Alfonso Montalvo,Riviera Kaufer,85.05,288.03,158.76,272.16,718.94,Single-ply,SBD,M
Boys,89.81,4,Chris Hubnik,Rogers,89.09,285.76,176.9,254.01,716.68,Single-ply,SBD,M
Boys,89.81,5,Austin Sellers,Hawley,88.36,260.82,201.85,242.67,705.34,Single-ply,SBD,M
Boys,89.81,6,Matt Garcia,Ben Bolt-Palito Blanco,88.63,263.08,167.83,244.94,675.85,Single-ply,SBD,M
Boys,89.81,7,Dj Woods,Kerens,89.54,272.16,136.08,249.48,657.71,Single-ply,SBD,M
Boys,89.81,8,Jose Jr Vela,Falfurrias,89.54,267.62,145.15,242.67,655.44,Single-ply,SBD,M
Boys,89.81,9,Ty Jones,New Boston,89.13,249.48,161.03,229.06,639.57,Single-ply,SBD,M
Boys,89.81,10,Ivan Garcia,Peaster,88.54,240.4,174.63,222.26,637.3,Single-ply,SBD,M
Boys,89.81,11,Brody Jones,Crawford,87.91,256.28,147.42,215.46,619.15,Single-ply,SBD,M
Boys,89.81,12,Anthony Garcia,Wichita Falls City View,87.63,233.6,122.47,247.21,603.28,Single-ply,SBD,M
Boys,99.79,13,Sheldon Libey,Cross Plains,89.9,238.14,129.27,226.8,594.21,Single-ply,SBD,M
Boys,89.81,14,Joe Woodson,El Maton Tidehaven,86.27,192.78,124.74,238.14,555.65,Single-ply,SBD,M
Boys,89.81,DQ,Haden Armstrong,Corrigan-Camden,86.73,213.19,136.08,,,Single-ply,SBD,M
Boys,89.81,DQ,Ryan de la Cruz,San Diego,88.9,,,,,Single-ply,SBD,M
Boys,99.79,1,Luis Lopez,San Diego,94.57,317.51,163.29,274.42,755.23,Single-ply,SBD,M
Boys,99.79,2,Reno Perez,San Diego,92.76,306.17,138.35,260.82,705.34,Single-ply,SBD,M
Boys,99.79,3,Kelton Henderson,Teague,98.79,294.84,163.29,247.21,705.34,Single-ply,SBD,M
Boys,99.79,4,Jorden Molina,Olney,97.25,260.82,154.22,260.82,675.85,Single-ply,SBD,M
Boys,99.79,5,John Maddigan,Rosebud-Lott,96.8,254.01,154.22,244.94,653.17,Single-ply,SBD,M
Boys,99.79,6,Hunter Rising,Winnie East Chambers,98.43,244.94,147.42,226.8,619.15,Single-ply,SBD,M
Boys,99.79,7,Justin Goble,Clyde,92.9,238.14,147.42,226.8,612.35,Single-ply,SBD,M
Boys,99.79,8,Ragan Henderson,Rice,99.25,181.44,149.69,272.16,603.28,Single-ply,SBD,M
Boys,99.79,9,Anthony Hadnot,Newton,93.62,242.67,122.47,226.8,591.94,Single-ply,SBD,M
Boys,99.79,10,Javier Jaramillo,Honey Grove,97.75,213.19,117.93,229.06,560.19,Single-ply,SBD,M
Boys,99.79,DQ,Ramiro Reyes,Colorado City Colorado,99.56,278.96,208.65,,,Single-ply,SBD,M
Boys,99.79,DQ,Joel Elizondo,Comanche,96.07,,,,,Single-ply,SBD,M
Boys,99.79,DQ,Damien Haskins,New Boston,95.71,,,,,Single-ply,SBD,M
Boys,109.77,1,Dewey Fleming,Redwater,107.95,303.91,192.78,265.35,762.04,Single-ply,SBD,M
Boys,109.77,2,Reggie Scales,New Boston,108.18,331.12,174.63,256.28,762.04,Single-ply,SBD,M
Boys,109.77,3,Dalton Ford,Buna,107.23,297.1,158.76,278.96,734.82,Single-ply,SBD,M
Boys,109.77,4,Enrique Lugo,Jourdanton,105.69,285.76,183.7,238.14,707.6,Single-ply,SBD,M
Boys,109.77,5,Hosea Bottley,Kountze,103.6,242.67,149.69,278.96,671.32,Single-ply,SBD,M
Boys,109.77,6,Riley Hubert,McGregor,103.33,290.3,140.61,238.14,669.05,Single-ply,SBD,M
Boys,109.77,7,Trevon Williams,Rosebud-Lott,104.78,249.48,136.08,235.87,621.42,Single-ply,SBD,M
Boys,109.77,8,Joseph Costa,Henrietta,105.46,272.16,151.95,192.78,616.89,Single-ply,SBD,M
Boys,109.77,9,Israel Aguero,Jourdanton,106.96,231.33,145.15,231.33,607.81,Single-ply,SBD,M
Boys,109.77,10,Jordan Stokes,Coahoma,100.15,249.48,129.27,226.8,605.55,Single-ply,SBD,M
Boys,109.77,11,David Whited,Wichita Falls City View,108.32,240.4,142.88,188.24,571.53,Single-ply,SBD,M
Boys,124.74,DQ,Daniel Montez,Roby,109.95,,,,,Single-ply,SBD,M
Boys,124.74,1,Luis Ramírez,Waco Reicher Catholic,111.04,288.03,188.24,238.14,714.41,Single-ply,SBD,M
Boys,124.74,2,Ricky Ciuba,Mertzon Irion County,118.84,263.08,176.9,249.48,689.46,Single-ply,SBD,M
Boys,124.74,3,Michael Garcia,Ganado,115.3,260.82,174.63,249.48,684.92,Single-ply,SBD,M
Boys,124.74,4,Anderson Daniels,George West,119.07,294.84,165.56,215.46,675.85,Single-ply,SBD,M
Boys,124.74,5,Tristen Walsworth,Troup,113.85,272.16,158.76,242.67,673.58,Single-ply,SBD,M
Boys,124.74,6,Homero Ramirez,Floydada,117.39,244.94,167.83,244.94,657.71,Single-ply,SBD,M
Boys,124.74,7,Miguel Garcia,Blue Ridge,122.92,263.08,142.88,249.48,655.44,Single-ply,SBD,M
Boys,124.74,8,John Mendoza,Karnes City,111.81,240.4,147.42,238.14,625.96,Single-ply,SBD,M
Boys,124.74,DQ,Damon Hinrichs,Millsap,115.12,272.16,,,,Single-ply,SBD,M
Boys,124.74,DQ,Dj Parks,San Augustine,121.47,,,,,Single-ply,SBD,M
Boys,124.74,DQ,Ryan Zdroik,Rogers,121.47,285.76,185.97,,,Single-ply,SBD,M
Boys,124.74,DQ,Kyle McCrary,Winnie East Chambers,119.2,240.4,158.76,,,Single-ply,SBD,M
Boys,124.74+,1,Luis Robles,Florence,146.96,326.59,183.7,260.82,771.11,Single-ply,SBD,M
Boys,124.74+,2,Manuel Tijerina,Jourdanton,128.46,290.3,163.29,281.23,734.82,Single-ply,SBD,M
Boys,124.74+,3,Brian Cain,Thrall,150.05,306.17,179.17,242.67,728.02,Single-ply,SBD,M
Boys,124.74+,4,Alan Singleton,Milford,188.47,263.08,163.29,256.28,682.66,Single-ply,SBD,M
Boys,124.74+,5,Edgar Guerrero,Friona,129.64,272.16,151.95,256.28,680.39,Single-ply,SBD,M
Boys,124.74+,6,Zach Kennedy,Corrigan-Camden,137.35,278.96,131.54,233.6,644.1,Single-ply,SBD,M
Boys,124.74+,7,Steven Manahan,McCamey,129.36,251.74,158.76,215.46,625.96,Single-ply,SBD,M
Boys,124.74+,8,Anthony Parks,Ganado,135.53,235.87,154.22,219.99,610.08,Single-ply,SBD,M
Boys,124.74+,9,D'Zavier Harris,Troup,134.9,249.48,133.81,224.53,607.81,Single-ply,SBD,M
Boys,124.74+,10,Jt McGuire,Olney,137.89,226.8,133.81,219.99,580.6,Single-ply,SBD,M
Boys,124.74+,DQ,Chad Davis,Altair Rice,141.16,240.4,,,,Single-ply,SBD,M
Boys,124.74+,DQ,Jacob Barton,Callisburg,127.19,294.84,210.92,,,Single-ply,SBD,M
