Place,WeightClassKg,Sex,Tested,Event,Equipment,Name,CyrillicName,Division,BirthDate,Age,BodyweightKg,Squat1Kg,Squat2Kg,Squat3Kg,Best3SquatKg,Squat4Kg,Bench1Kg,Bench2Kg,Bench3Kg,Best3BenchKg,Bench4Kg,Deadlift1Kg,Deadlift2Kg,Deadlift3Kg,Best3DeadliftKg,Deadlift4Kg,TotalKg
1,52,F,Yes,SBD,Wraps,Natalya Leonenko,Наталья Леоненко,Open,1983-04-07,32,52,95,97.5,-100,97.5,,45,47.5,-50,47.5,,107.5,-120,-120,107.5,,252.5
1,52,F,Yes,SBD,Wraps,Ekaterina Ilina,Екатерина Ильина,Juniors 20-23,1995-05-02,20,51.9,75,80,-85,80,,50,52.5,-55,52.5,,90,100,107.5,107.5,,240
DQ,,F,Yes,SBD,Wraps,Kristina Orekhova,Кристина Орехова,Open,1989-12-26,25,51.6,-85,-85,-85,,,,,,,,,,,,,
1,56,F,Yes,SBD,Wraps,Tatyana Kashtanova,Татьяна Каштанова,Open,1985-03-27,30,55,95,-102.5,-102.5,95,,-45,45,-50,45,,97.5,107.5,117.5,117.5,,257.5
2,56,F,Yes,SBD,Wraps,Zarina Romanova,Зарина Романова,Open,1986-02-06,29,54,70,75,-77.5,75,,40,42.5,45,45,,90,100,-107.5,100,,220
1,60,F,Yes,SBD,Wraps,Ekaterina Galochka,Екатерина Галочка,Open,1987-01-05,28,58.1,-135,135,140,140,,87.5,,,87.5,,167.5,,,167.5,,395
DQ,60,F,Yes,SBD,Wraps,Anna Koroleva,Анна Королева,Open,1983-03-31,32,59.9,95,-105,105,105,,55,60,65,65,,-110,-132.5,-132.5,,,
DQ,67.5,F,Yes,SBD,Wraps,Lyubov Vanyukhina,Любовь Ванюхина,Open,1991-05-22,24,67.1,-107.5,-117.5,-117.5,,,,,,,,,,,,,
1,67.5,F,Yes,SBD,Wraps,Evgeniya Chekanova,Евгения Чеканова,Masters 40-44,1972-02-01,43,66.9,90,100,105,105,,65,67.5,-70,67.5,,110,-120,-120,110,,282.5
1,52,M,Yes,SBD,Wraps,Vladimir Kalinin,Владимир Калинин,Teen 16-17,1997-08-11,17,51.9,120,-125,125,125,,75,80,-82.5,80,,120,-127.5,,120,,325
1,52,M,Yes,SBD,Wraps,Aleksey Karamzin,Алексей Карамзин,Open,1988-04-13,27,51.9,120,130,-132.5,130,,75,-82.5,82.5,82.5,,150,-165,-165,150,,362.5
DQ,67.5,M,Yes,SBD,Wraps,Rafik Ayvazyan,Рафик Айвазян,Juniors 20-23,1993-02-13,22,66.8,145,-155,155,155,,-110,-110,-110,,,,,,,,
1,67.5,M,Yes,SBD,Wraps,Maksim Zavyalov,Максим Завьялов,Open,1990-08-06,24,65.4,-105,-105,105,105,,92.5,97.5,-100,97.5,,130,140,150,150,,352.5
1,75,M,Yes,SBD,Wraps,Kostas Telidis,Костас Телидис,Open,1989-04-18,26,74.5,180,,,180,,140,,,140,,180,,,180,,500
1,82.5,M,Yes,SBD,Wraps,Andrey Zakirov,Андрей Закиров,Teen 16-17,1998-12-26,16,80.2,-135,-140,140,140,,115,-120,-120,115,,150,-157.5,-160,150,,405
DQ,82.5,M,Yes,SBD,Wraps,Anton Filimonov,Антон Филимонов,Teen 16-17,1998-03-08,17,80.3,-160,-170,-170,,,,,,,,,,,,,
DQ,82.5,M,Yes,SBD,Wraps,Aleksandr Zinchenko,Александр Зинченко,Open,1974-07-21,41,80.9,-195,-195,-210,,,,,,,,,,,,,
1,90,M,Yes,SBD,Wraps,Aleksandr Mashchenko,Александр Мащенко,Juniors 20-23,1994-06-28,21,85.5,130,-145,-145,130,,100,-107.5,-107.5,100,,160,170,180,180,,410
1,90,M,Yes,SBD,Wraps,Ivan Aurov,Иван Ауров,Open,1987-09-09,27,89.9,200,205,-210,205,,150,-160,-160,150,,230,-242.5,-242.5,230,,585
1,100,M,Yes,SBD,Wraps,Mikhail Modlin,Михаил Модлин,Open,1982-02-21,33,96.7,80,100,110,110,,120,130,140,140,,150,170,200,200,,450
1,110,M,Yes,SBD,Wraps,Vladislav Sanin,Владислав Санин,Juniors 20-23,1992-04-14,23,101.1,-210,210,-215,210,,135,140,145,145,,230,235,240,240,,595
1,110,M,Yes,SBD,Wraps,Sergey Svechnikov,Сергей Свечников,Open,1963-11-08,51,104.2,160,165,172.5,172.5,,-110,-110,110,110,,210,220,225,225,,507.5
1,110,M,Yes,SBD,Wraps,Sergey Svechnikov,Сергей Свечников,Masters 50-54,1963-11-08,51,104.5,160,165,172.5,172.5,,-110,-110,110,110,,210,220,225,225,,507.5
1,44,F,Yes,SBD,Single-ply,Ekaterina Semenchenko,Екатерина Семенченко,Juniors 20-23,1992-01-07,23,36.4,90,95,-102.5,95,,32.5,37.5,40,40,,80,95,-105,95,,230
1,48,F,Yes,SBD,Single-ply,Yuliya Vakhterova,Юлия Вахтерова,Open,1980-01-01,35,47.4,130,135,140,140,,70,-72.5,72.5,72.5,,135,142.5,-147.5,142.5,,355
1,56,F,Yes,SBD,Single-ply,Lyubov Marochenko,Любовь Мароченко,Teen 18-19,1996-02-11,19,55.5,105,-115,-115,105,,50,-55,,50,,110,120,125,125,,280
DQ,67.5,M,Yes,SBD,Single-ply,Aleksey Grishchenko,Алексей Грищенко,Open,1988-07-31,27,65,-220,-220,-220,,,,,,,,,,,,,
1,75,M,Yes,SBD,Single-ply,Kostas Telidis,Костас Телидис,Open,1989-04-18,26,74.5,260,270,280,280,-285.5,225,235,-245,235,,227.5,247.5,255,255,-260.5,770
DQ,75,M,Yes,SBD,Single-ply,Denis Urmanov,Денис Урманов,Open,1980-07-20,35,74.4,-300,-300,-300,,,,,,,,,,,,,
1,82.5,M,Yes,SBD,Single-ply,Evgeniy Vdovin,Евгений Вдовин,Open,1979-02-19,36,81.9,190,-205,205,205,,130,135,-137.5,135,,195,205,-210,205,,545
2,82.5,M,Yes,SBD,Single-ply,Pavel Redkokasha,Павел Редкокаша,Open,1988-02-26,27,80.8,-185,-185,185,185,,-125,-125,125,125,,210,-220,225,225,,535
1,90,M,Yes,SBD,Single-ply,Dmitriy Pecherevin,Дмитрий Печеревин,Teen 16-17,1997-12-02,17,85.2,200,-215,230,230,,-110,-115,115,115,,-210,220,-235,220,,565
1,90,M,Yes,SBD,Single-ply,Mikhail Strelets,Михаил Стрелец,Open,1984-10-20,30,89.6,320,335,-350,335,,210,217.5,-225,217.5,,265,282.5,-293,282.5,,835
1,48,F,No,SBD,Wraps,Alina Misaylova,Алина Мисайлова,Open,1988-07-07,27,47.8,110,120,-130,120,,80,-82.5,-85,80,,120,130,133,133,,332.5
1,75,F,No,SBD,Wraps,Natalya Aksenova,Наталья Аксенова,Masters 40-44,1972-08-21,42,73,110,115,120,120,,50,-52.5,55,55,,110,120,130,130,,305
1,75,M,No,SBD,Wraps,Amin Guseynov,Амин Гусейнов,Open,1990-11-20,24,71.7,120,130,140,140,,100,-105,-105,100,,170,180,-190,180,,420
1,82.5,M,No,SBD,Wraps,Dmitriy Dimitrenko,Дмитрий Димитренко,Teen 16-17,1998-06-21,17,77.8,135,145,152.5,152.5,,-90,90,95,95,,170,180,182.5,182.5,,430
1,82.5,M,No,SBD,Wraps,Ivan Troyanov,Иван Троянов,Open,1987-01-14,28,82.1,230,240,245,245,,180,-187.5,-190,180,,255,265,275,275,,700
2,82.5,M,No,SBD,Wraps,Petr Belousov,Петр Белоусов,Open,1989-06-09,26,81.6,220,235,-245,235,,160,170,175,175,,205,225,-245,225,,635
1,90,M,No,SBD,Wraps,Aleksandr Shabanov,Александр Шабанов,Juniors 20-23,1992-02-20,23,88.7,225,240,250,250,,150,-160,160,160,,230,250,255,255,,665
1,90,M,No,SBD,Wraps,Igor Luzin,Игорь Лузин,Masters 45-49,1969-11-04,45,89.2,-165,180,197.5,197.5,,125,130,,130,,170,180,200,200,,527.5
1,100,M,No,SBD,Wraps,Yuriy Katanov,Юрий Катанов,Open,1981-01-14,34,100,240,250,-260,250,,165,175,-180,175,,290,300,310,310,,735
2,100,M,No,SBD,Wraps,Grigor Avetisyan,Григор Аветисян,Open,1989-09-11,25,97.5,235,-250,250,250,,175,185,195,195,,250,265,280,280,,725
3,100,M,No,SBD,Wraps,Vladislav Skuratov,Владислав Скуратов,Open,1989-01-14,26,95.5,190,-200,200,200,,152.5,-160,160,160,,210,225,-240,225,,585
1,110,M,No,SBD,Wraps,Ivan Zakharov,Иван Захаров,Open,1990-02-15,25,106.4,280,295,305,305,,190,195,-200,195,,340,-350,-350,340,,840
1,110,M,No,SBD,Wraps,Yuriy Shantsyn,Юрий Шанцын,Masters 65-69,1949-02-21,66,103.2,150,-160,-160,150,,120,125,-130,125,,180,190,200,200,210,475
1,125,M,No,SBD,Wraps,Andrey Demekhov,Андрей Демехов,Open,1984-04-30,31,113,200,210,-220,210,,140,-145,150,150,,240,250,,250,,610
2,125,M,No,SBD,Wraps,Igor Litvinov,Игорь Литвинов,Open,1990-08-25,24,116.2,150,160,-170,160,,-135,135,-140,135,,190,205,-225,205,,500
1,140,M,No,SBD,Wraps,Evgeniy Ivanov,Евгений Иванов,Open,1973-06-13,42,131,265,,,265,,170,180,185,185,,300,315,325,325,,775
1,140,M,No,SBD,Wraps,Evgeniy Ivanov,Евгений Иванов,Masters 40-44,1973-06-13,42,131,265,,,265,,170,180,185,185,,300,315,325,325,,775
1,75,M,No,SBD,Single-ply,Oleg Solonenko,Олег Солоненко,Open,1970-09-26,44,74.2,-210,-210,210,210,,140,150,160,160,,220,230,235,235,,605
1,75,M,No,SBD,Single-ply,Oleg Solonenko,Олег Солоненко,Masters 40-44,1970-09-26,44,74.2,-210,-210,210,210,,140,150,160,160,,220,230,235,235,,605
1,82.5,M,No,SBD,Single-ply,Vadim Krolovetskiy,Вадим Кроловецкий,Juniors 20-23,1993-07-07,22,82.4,-270,270,296,296,,180,195,-205.5,195,,250,-270,-270,250,,741
1,90,M,No,SBD,Single-ply,Igor Gavrilyan,Игорь Гаврильян,Open,1979-08-23,35,88.5,260,-272.5,-272.5,260,,160,175,182.5,182.5,,260,275,-280,275,,717.5
2,90,M,No,SBD,Single-ply,Ilya Maltsev,Илья Мальцев,Open,1978-08-02,36,87,-240,240,250,250,,-160,160,170,170,,220,230,,230,,650
1,90,M,No,SBD,Single-ply,Mikhail Rostovtsev,Михаил Ростовцев,Masters 55-59,1958-05-28,57,89.8,265,275,285,285,,175,185,-195,185,,225,235,245,245,,715
1,100,M,No,SBD,Single-ply,Egor Musienko,Егор Мусиенко,Juniors 20-23,1993-06-15,22,100,-391,-391,392.5,392.5,,210,217.5,222.5,222.5,,-340,340,-352.5,340,,955
2,100,M,No,SBD,Single-ply,Vladimir Poteev,Владимир Потеев,Juniors 20-23,1994-10-13,20,99.7,280,-290,-300,280,,170,175,-180,175,,270,280,-300,280,,735
1,100,M,No,SBD,Single-ply,Egor Musienko,Егор Мусиенко,Open,1993-06-15,22,100,-391,-391,392.5,392.5,,210,217.5,222.5,222.5,,-340,340,-352.5,340,,955
2,100,M,No,SBD,Single-ply,Dmitriy Sizykh,Дмитрий Сизых,Open,1988-07-26,27,97,260,280,300,300,,-180,180,185,185,,240,250,260,260,,745
1,110,M,No,SBD,Single-ply,Elisey Belets,Елисей Белец,Open,1986-06-02,29,102.3,300,310,315,315,,200,-210,-210,200,,250,260,270,270,,785
1,110,M,No,SBD,Single-ply,Konstantin Ananin,Константин Ананьин,Masters 40-44,1974-05-31,41,101.8,190,200,210,210,,140,145,-150,145,,200,215,225,225,,580
1,48,F,No,D,Raw,Alina Misaylova,Алина Мисайлова,Open,1988-07-07,27,47.9,,,,,,,,,,,125,133,-135,133,,133
1,75,M,No,D,Raw,Oleg Solonenko,Олег Солоненко,Open,1970-09-26,44,75,,,,,,,,,,,-190,190,200,200,210,200
2,75,M,No,D,Raw,Amin Guseynov,Амин Гусейнов,Open,1990-11-20,24,71.9,,,,,,,,,,,160,170,180,180,,180
1,75,M,No,D,Raw,Oleg Solonenko,Олег Солоненко,Masters 40-44,1970-09-26,44,75,,,,,,,,,,,-190,190,200,200,210,200
1,82.5,M,No,D,Raw,Sergey Aksenov,Сергей Аксенов,Teen 18-19,1996-04-06,19,80.15,,,,,,,,,,,240,255,-270,255,,255
1,82.5,M,No,D,Raw,Sergey Aksenov,Сергей Аксенов,Open,1996-04-06,19,80.15,,,,,,,,,,,240,255,-270,255,,255
2,82.5,M,No,D,Raw,Ivan Popov,Иван Попов,Open,1991-01-21,24,77.2,,,,,,,,,,,175,182.5,190,190,,190
1,90,M,No,D,Raw,Maksim Vedishchev,Максим Ведищев,Open,1978-05-17,37,89.15,,,,,,,,,,,300,-317.5,-317.5,300,,300
1,100,M,No,D,Raw,Yuriy Katanov,Юрий Катанов,Open,1981-01-14,34,100,,,,,,,,,,,-260,270,,270,,270
1,110,M,No,D,Raw,Ivan Bodyagin,Иван Бодягин,Open,1987-02-26,28,109.3,,,,,,,,,,,340,355,370,370,-381,370
1,125,M,No,D,Raw,Andrey Demikhov,Андрей Демихов,Open,1984-04-30,31,112.2,,,,,,,,,,,240,250,260,260,,260
1,75,M,No,D,Single-ply,Konstantin Semenov,Константин Семенов,Open,1964-08-24,50,75,,,,,,,,,,,225,230,235,235,,235
1,75,M,No,D,Single-ply,Konstantin Semenov,Константин Семенов,Masters 50-54,1964-08-24,50,75,,,,,,,,,,,225,230,235,235,,235
1,110,M,No,D,Single-ply,Elisey Belets,Елисей Белец,Open,1986-06-02,29,102.7,,,,,,,,,,,250,270,-280,270,,270
1,125,M,No,D,Single-ply,Valentin Dedyulia,Валентин Дедюля,Open,1977-07-27,38,123.5,,,,,,,,,,,330,350,,350,,350
DQ,90,M,No,D,Multi-ply,Ilya Maltsev,Илья Мальцев,Open,1978-08-02,36,86.1,,,,,,,,,,,-230,-230,,,,
1,100,M,No,D,Multi-ply,Dmitriy Gritsaenko,Дмитрий Грицаенко,Open,1979-07-17,36,95.5,,,,,,,,,,,-220,220,-240,220,,220
1,48,F,No,B,Raw,Alina Misaylova,Алина Мисайлова,Open,1988-07-07,27,47.9,,,,,,80,82.5,85,85,-90,,,,,,85
1,60,F,No,B,Raw,Natalya Romanovich,Наталья Романович,Masters 45-49,1969-06-26,46,57.5,,,,,,80,85,90,90,,,,,,,90
1,67.5,F,No,B,Raw,Elena Martynenko,Елена Мартыненко,Open,1981-07-21,34,66.8,,,,,,105,-110,-110,105,,,,,,,105
1,75,F,No,B,Raw,Olga Baklykova,Ольга Баклыкова,Masters 50-54,1964-05-07,51,72.4,,,,,,105,110,-112.5,110,,,,,,,110
1,82.5,F,No,B,Raw,Aleksandra Akhmetyanova,Александра Ахметьянова,Open,1987-06-18,28,82.4,,,,,,-95,95,-105,95,,,,,,,95
1,67.5,M,No,B,Raw,Artem Rudenko,Артем Руденко,Open,1986-02-28,29,66.4,,,,,,92.5,-100,-100,92.5,,,,,,,92.5
1,75,M,No,B,Raw,Konstantin Zozulya,Константин Зозуля,Juniors 20-23,1993-04-09,22,73.5,,,,,,145,-155,-160,145,,,,,,,145
1,75,M,No,B,Raw,Maksim Biryukov,Максим Бирюков,Open,1981-07-04,34,75,,,,,,150,155,-160,155,,,,,,,155
2,75,M,No,B,Raw,Ivan Nikitin,Иван Никитин,Open,1988-01-27,27,73.5,,,,,,140,150,-155,150,,,,,,,150
3,75,M,No,B,Raw,Oleg Solonenko,Олег Солоненко,Open,1970-09-26,44,75,,,,,,120,130,135,135,,,,,,,135
4,75,M,No,B,Raw,Konstantin Semenov,Константин Семенов,Open,1964-08-24,50,75,,,,,,-125,125,,125,,,,,,,125
5,75,M,No,B,Raw,Amin Guseynov,Амин Гусейнов,Open,1990-11-20,24,71.9,,,,,,-100,100,105,105,,,,,,,105
1,75,M,No,B,Raw,Oleg Solonenko,Олег Солоненко,Masters 40-44,1970-09-26,44,75,,,,,,120,130,135,135,,,,,,,135
1,75,M,No,B,Raw,Konstantin Semenov,Константин Семенов,Masters 50-54,1964-08-24,50,75,,,,,,-125,125,,125,,,,,,,125
1,82.5,M,No,B,Raw,Sergey Aksenov,Сергей Аксенов,Teen 18-19,1996-04-06,19,80.15,,,,,,-115,125,135,135,,,,,,,135
1,82.5,M,No,B,Raw,Roman Stepanishchev,Роман Степанищев,Juniors 20-23,1992-12-19,22,81.7,,,,,,137.5,-147.5,150,150,,,,,,,150
1,82.5,M,No,B,Raw,Petr Belousov,Петр Белоусов,Open,1989-06-09,26,81.75,,,,,,160,170,175,175,,,,,,,175
2,82.5,M,No,B,Raw,Sergey Fyodorov,Сергей Фёдоров,Open,1962-04-27,53,77.2,,,,,,155,165,-170,165,,,,,,,165
3,82.5,M,No,B,Raw,Evgeniy Bagibekov,Евгений Багибеков,Open,1984-01-16,31,79.1,,,,,,120,125,-130,125,,,,,,,125
1,82.5,M,No,B,Raw,Sergey Fyodorov,Сергей Фёдоров,Masters 50-54,1962-04-27,53,77.2,,,,,,-165,165,-170,165,,,,,,,165
1,90,M,No,B,Raw,Aleksandr Maslikov,Александр Масликов,Open,1980-09-28,34,90,,,,,,150,157.5,162.5,162.5,,,,,,,162.5
2,90,M,No,B,Raw,Yuriy Ukhanov,Юрий Уханов,Open,1983-12-11,31,85.3,,,,,,140,150,155,155,,,,,,,155
1,90,M,No,B,Raw,Aleksandr Kushnarev,Александр Кушнарев,Masters 40-44,1974-04-12,41,88.3,,,,,,125,127.5,-130,127.5,,,,,,,127.5
1,90,M,No,B,Raw,Aleksandr Tsmyg,Александр Цмыг,Masters 50-54,1963-10-20,51,85.15,,,,,,137.5,142.5,147.5,147.5,,,,,,,147.5
1,90,M,No,B,Raw,Vladimir Rurenko,Владимир Руренко,Masters 60-64,1953-10-03,61,88.6,,,,,,110,120,130,130,,,,,,,130
1,90,M,No,B,Raw,Vasiliy Mertsalov,Василий Мерцалов,Masters 65-69,1946-10-27,68,88.9,,,,,,110,120,-150,120,,,,,,,120
1,100,M,No,B,Raw,Ilya Lovtsov,Илья Ловцов,Juniors 20-23,1994-08-02,20,99.8,,,,,,170,-180,180,180,,,,,,,180
1,100,M,No,B,Raw,Vasiliy Fedyaev,Василий Федяев,Open,1982-10-26,32,99.2,,,,,,235,240,245,245,,,,,,,245
DQ,100,M,No,B,Raw,Viktor Mikhalev,Виктор Михалев,Open,1986-05-16,29,99.6,,,,,,-165,,,,,,,,,,
1,100,M,No,B,Raw,Pavel Zverev,Павел Зверев,Masters 40-44,1975-01-22,40,96.5,,,,,,180,190,-195,190,,,,,,,190
1,100,M,No,B,Raw,Aleksey Chernikov,Алексей Черников,Masters 55-59,1958-11-24,56,94.2,,,,,,115,120,125,125,,,,,,,125
1,110,M,No,B,Raw,Sergey Lir,Сергей Лир,Juniors 20-23,1991-08-25,23,109.6,,,,,,-240,240,-248,240,,,,,,,240
1,110,M,No,B,Raw,Sergey Lir,Сергей Лир,Open,1991-08-25,23,109.6,,,,,,-240,240,-248,240,,,,,,,240
1,110,M,No,B,Raw,Andrey Vorontsov,Андрей Воронцов,Open,1969-06-06,46,108.5,,,,,,-210,210,212.5,212.5,,,,,,,212.5
2,110,M,No,B,Raw,Aleksandr Fedorov,Александр Федоров,Open,1986-04-29,29,104.4,,,,,,180,-190,190,190,,,,,,,190
1,110,M,No,B,Raw,Andrey Vorontsov,Андрей Воронцов,Masters 45-49,1969-06-06,46,108.5,,,,,,-210,210,212.5,212.5,,,,,,,212.5
2,110,M,No,B,Raw,Aleksandr Lyozin,Александр Лёзин,Masters 45-49,1970-06-03,45,109.8,,,,,,170,180,182.5,182.5,,,,,,,182.5
DQ,125,M,No,B,Raw,Konstantin Tungusov,Константин Тунгусов,Open,1987-03-27,28,110.9,,,,,,-145,-145,-145,,,,,,,,
1,125,M,No,B,Raw,Evgeniy Druzhinin,Евгений Дружинин,Masters 45-49,1969-08-03,45,112.5,,,,,,200,-205,205,205,,,,,,,205
1,140,M,No,B,Raw,Aleksandr Kovalevskiy,Александр Ковалевский,Masters 50-54,1963-03-13,52,138.6,,,,,,210,220,-230,220,,,,,,,220
DQ,75,M,No,B,Single-ply,Viktoriya Yakushevich,Виктория Якушевич,Open,1986-02-17,29,69.7,,,,,,-97.5,-97.5,-97.5,,,,,,,,
1,90,M,No,B,Single-ply,Aleksey Lopasov,Алексей Лопасов,Open,1982-12-31,32,86.7,,,,,,175,-180,180,180,,,,,,,180
1,90,M,No,B,Single-ply,Sergey Druzhkov,Сергей Дружков,Masters 65-69,1950-01-01,65,84.7,,,,,,-145,145,-160,145,,,,,,,145
1,100,M,No,B,Single-ply,Aleksey Goryan,Алексей Горян,Open,1982-11-04,32,96.1,,,,,,-245,245,-260,245,,,,,,,245
2,100,M,No,B,Single-ply,Aleksey Rogozin,Алексей Рогозин,Open,1991-05-08,24,97,,,,,,-210,210,212.5,212.5,,,,,,,212.5
3,100,M,No,B,Single-ply,Dmitriy Savitskiy,Дмитрий Савицкий,Open,1986-12-24,28,97.9,,,,,,210,-220,-220,210,,,,,,,210
1,110,M,No,B,Single-ply,Elisey Belets,Елисей Белец,Open,1986-06-02,29,102.7,,,,,,200,-210,,200,,,,,,,200
1,125,M,No,B,Single-ply,Ramig Nuruev,Рамиг Нуруев,Open,1984-11-03,30,123.1,,,,,,275,280,285,285,,,,,,,285
DQ,125,M,No,B,Single-ply,Valentin Dedyulia,Валентин Дедюля,Open,1977-07-27,38,123.5,,,,,,-250,-250,-250,,,,,,,,
1,75,M,No,B,Multi-ply,Vitaliy Danilov,Виталий Данилов,Open,1990-08-22,24,74.9,,,,,,150,-155,155,155,,,,,,,155
1,90,M,No,B,Multi-ply,Ilya Maltsev,Илья Мальцев,Open,1978-08-06,36,86.1,,,,,,150,-160,165,165,,,,,,,165
1,100,M,Yes,D,Multi-ply,Igor Umerenkov,Игорь Умеренков,Open,1980-09-13,34,95,,,,,,,,,,,300,320,-330,320,,320
1,75,M,Yes,D,Single-ply,Denis Urmanov,Денис Урманов,Open,1980-07-20,35,74.4,,,,,,,,,,,245,260,-277.5,260,,260
2,75,M,Yes,D,Single-ply,Kostas Telidis,Костас Телидис,Open,1989-04-18,26,75,,,,,,,,,,,245,-255,-262.5,245,,245
1,82.5,M,Yes,D,Single-ply,Evgeniy Vdovin,Евгений Вдовин,Open,1979-02-19,36,81.8,,,,,,,,,,,195,205,-225,205,,205
DQ,100,M,Yes,D,Single-ply,Mikhail Modlin,Михаил Модлин,Open,1982-02-21,33,96.7,,,,,,,,,,,-150,,,,,
1,44,F,Yes,D,Raw,Darya Gaydash,Дарья Гайдаш,Juniors 20-23,1992-07-13,23,43.8,,,,,,,,,,,90,100,-102.5,100,,100
1,48,F,Yes,D,Raw,Yuliya Vakhterova,Юлия Вахтерова,Open,1980-01-01,35,47.4,,,,,,,,,,,120,128,132.5,132.5,137.5,132.5
1,56,F,Yes,D,Raw,Yuliya Dolgopolova,Юлия Долгополова,Open,1991-02-10,24,52.8,,,,,,,,,,,60,80,-90,80,,80
DQ,60,F,Yes,D,Raw,Anna Koroleva,Анна Королева,Open,1983-03-31,32,59.9,,,,,,,,,,,-110,,,,,
1,67.5,F,Yes,D,Raw,Lyubov Vanyukhina,Любовь Ванюхина,Open,1991-05-22,24,67.1,,,,,,,,,,,127.5,135,,135,,135
1,67.5,F,Yes,D,Raw,Evgeniya Chekanova,Евгения Чеканова,Masters 40-44,1972-02-01,43,65.5,,,,,,,,,,,110,120,-135,120,,120
1,52,M,Yes,D,Raw,Aleksey Veshkurtsev,Алексей Вешкурцев,Open,1981-08-08,33,51,,,,,,,,,,,155,162.5,165,165,,165
2,52,M,Yes,D,Raw,Aleksey Karamzin,Алексей Карамзин,Open,1988-04-13,27,51.9,,,,,,,,,,,130,152.5,-165,152.5,,152.5
DQ,56,M,Yes,D,Raw,Maksim Groshev,Максим Грошев,Open,1985-10-11,29,55.3,,,,,,,,,,,-155,-155,-155,,,
1,67.5,M,Yes,D,Raw,Rafik Ayvazyan,Рафик Айвазян,Juniors 20-23,1993-02-13,22,66.8,,,,,,,,,,,190,217.5,,217.5,,217.5
2,67.5,M,Yes,D,Raw,Andrey Novobranets,Андрей Новобранец,Juniors 20-23,1994-11-24,20,67,,,,,,,,,,,175,190,-200,190,,190
1,67.5,M,Yes,D,Raw,Maksim Zavyalov,Максим Завьялов,Open,1990-08-06,24,65,,,,,,,,,,,-145,150,-165,150,,150
1,75,M,Yes,D,Raw,Kostas Telidis,Костас Телидис,Open,1989-04-18,26,75,,,,,,,,,,,232.5,,,232.5,,232.5
2,75,M,Yes,D,Raw,Andrey Faskhutdinov,Андрей Фасхутдинов,Open,1990-06-22,25,74.4,,,,,,,,,,,190,202.5,-232.5,202.5,,202.5
3,75,M,Yes,D,Raw,Andrey Abramov,Андрей Абрамов,Open,1988-12-26,26,75,,,,,,,,,,,180,195,-202.5,195,,195
4,75,M,Yes,D,Raw,Stanislav Ashevskiy,Станислав Ашевский,Open,1990-10-21,24,72.3,,,,,,,,,,,175,-190,-202.5,175,,175
1,75,M,Yes,D,Raw,Aleksandr Turaev,Александр Тураев,Masters 45-49,1968-07-07,47,72.6,,,,,,,,,,,-125,-125,125,125,,125
1,82.5,M,Yes,D,Raw,Anton Filimonov,Антон Филимонов,Teen 16-17,1998-03-08,17,78.8,,,,,,,,,,,150,165,-185,165,,165
2,82.5,M,Yes,D,Raw,Andrey Zakirov,Андрей Закиров,Teen 16-17,1998-12-26,16,80.2,,,,,,,,,,,155,-162.5,-162.5,155,,155
1,82.5,M,Yes,D,Raw,Eduard Dolgopolov,Эдуард Долгополов,Open,1977-04-22,38,81.1,,,,,,,,,,,-220,220,230,230,,230
2,82.5,M,Yes,D,Raw,Roman Zvonkov,Роман Звонков,Open,1982-12-16,32,82,,,,,,,,,,,195,215,-225,215,,215
3,82.5,M,Yes,D,Raw,Aleksandr Yakushev,Александр Якушев,Open,1990-04-27,25,76.1,,,,,,,,,,,180,190,200,200,,200
4,82.5,M,Yes,D,Raw,Dmitriy Etmanov,Дмитрий Этманов,Open,1989-08-26,25,79.3,,,,,,,,,,,175,185,-195,185,,185
1,82.5,M,Yes,D,Raw,Aleksandr Zinchenko,Александр Зинченко,Masters 40-44,1974-07-21,41,81.2,,,,,,,,,,,195,207.5,-215,207.5,,207.5
1,82.5,M,Yes,D,Raw,Vladimir Gritsaenko,Владимир Грицаенко,Masters 55-59,1957-12-14,57,80.1,,,,,,,,,,,125,140,150,150,,150
1,90,M,Yes,D,Raw,Dmitriy Popov,Дмитрий Попов,Juniors 20-23,1992-07-05,23,88.2,,,,,,,,,,,-205,212.5,-215,212.5,,212.5
1,90,M,Yes,D,Raw,Vladimir Dorogoy,Владимир Дорогой,Open,1988-11-27,26,89.8,,,,,,,,,,,270,290,-300,290,,290
2,90,M,Yes,D,Raw,Ivan Vakulenko,Иван Вакуленко,Open,1985-08-21,29,89.7,,,,,,,,,,,195,210,222.5,222.5,,222.5
3,90,M,Yes,D,Raw,Ivan Aurov,Иван Ауров,Open,1987-09-09,27,90,,,,,,,,,,,-222.5,-222.5,222.5,222.5,,222.5
1,100,M,Yes,D,Raw,Vyacheslav Ten,Вячеслав Тен,Open,1987-02-21,28,98.8,,,,,,,,,,,180,210,240,240,,240
1,110,M,Yes,D,Raw,Sergey Svechnikov,Сергей Свечников,Masters 50-54,1963-11-08,51,103.2,,,,,,,,,,,210,220,222.5,222.5,,222.5
1,48,F,Yes,B,Raw,Anastasiya Biryukova,Анастасия Бирюкова,Open,1982-06-24,33,47.45,,,,,,45,47.5,-50,47.5,,,,,,,47.5
2,48,F,Yes,B,Raw,Olga Shishkina,Ольга Шишкина,Open,1985-02-23,30,47.7,,,,,,30,32.5,35,35,,,,,,,35
1,52,F,Yes,B,Raw,Alena Makelova,Алена Макелова,Juniors 20-23,1993-02-12,22,50.2,,,,,,-40,45,50,50,,,,,,,50
1,56,F,Yes,B,Raw,Svetlana Burchik,Светлана Бурчик,Teen 13-15,2000-08-02,14,56,,,,,,,32.5,35,35,,,,,,,35
1,56,F,Yes,B,Raw,Aleksandra Kirilyuk,Александра Кирилюк,Open,1987-03-27,28,55.6,,,,,,55,-60,-62.5,55,,,,,,,55
1,60,F,Yes,B,Raw,Anna Koroleva,Анна Королева,Open,1983-03-31,32,59.9,,,,,,60,-67.5,-67.5,60,,,,,,,60
1,67.5,F,Yes,B,Raw,Viktoriya Blotskaya,Виктория Блоцкая,Open,1985-10-14,29,66.8,,,,,,70,75,80,80,,,,,,,80
1,67.5,F,Yes,B,Raw,Evgeniya Chekanova,Евгения Чеканова,Masters 40-44,1972-02-01,43,65.5,,,,,,60,67.5,-72.5,67.5,,,,,,,67.5
1,82.5,F,Yes,B,Raw,Albina Belkova,Альбина Белкова,Open,1988-09-22,26,76.3,,,,,,67.5,-70,-70,67.5,,,,,,,67.5
1,52,M,Yes,B,Raw,Aleksey Veshkurtsev,Алексей Вешкурцев,Open,1981-08-08,33,51,,,,,,85,-92.5,-92.5,85,,,,,,,85
1,67.5,M,Yes,B,Raw,Daniil Moseev,Даниил Мосеев,Teen 13-15,2000-10-10,14,66.55,,,,,,75,80,87.5,87.5,,,,,,,87.5
1,67.5,M,Yes,B,Raw,Arseniy Rogozin,Арсений Рогозин,Teen 16-17,1999-05-05,16,64.1,,,,,,-120,120,-125,120,,,,,,,120
1,67.5,M,Yes,B,Raw,Aleksandr Mashchenko,Александр Мащенко,Teen 18-19,1996-07-05,19,65.3,,,,,,115,120,-125,120,,,,,,,120
1,67.5,M,Yes,B,Raw,Dmitriy Sorokin,Дмитрий Сорокин,Juniors 20-23,1994-01-13,21,65.9,,,,,,100,-107.5,-107.5,100,,,,,,,100
1,67.5,M,Yes,B,Raw,Grigoriy Veslopolov,Григорий Веслополов,Open,1986-06-24,29,66.5,,,,,,107.5,117.5,-125,117.5,,,,,,,117.5
DQ,67.5,M,Yes,B,Raw,Sergey Kurzaev,Сергей Курзаев,Open,1988-06-25,27,66.9,,,,,,-97.5,,,,,,,,,,
1,75,M,Yes,B,Raw,Andrey Andris,Андрей Андрис,Teen 16-17,1998-03-19,17,73.9,,,,,,115,117.5,122.5,122.5,,,,,,,122.5
1,75,M,Yes,B,Raw,Ruslan Bakanaev,Руслан Баканаев,Juniors 20-23,1993-05-16,22,72.6,,,,,,120,-125,-125,120,,,,,,,120
1,75,M,Yes,B,Raw,Aleksandr Turaev,Александр Тураев,Open,1968-07-07,47,72.6,,,,,,145,155,162.5,162.5,,,,,,,162.5
2,75,M,Yes,B,Raw,Eduard Makhota,Эдуард Махота,Open,1983-01-10,32,72.8,,,,,,150,155,162.5,162.5,,,,,,,162.5
3,75,M,Yes,B,Raw,Sergey Bogoyavlenskiy,Сергей Богоявленский,Open,1984-04-02,31,73.8,,,,,,125,-130,130,130,,,,,,,130
DQ,75,M,Yes,B,Raw,Ivan Blokhin,Иван Блохин,Open,1982-10-13,32,74.8,,,,,,-130,-130,-130,,,,,,,,
1,75,M,Yes,B,Raw,Aleksandr Turaev,Александр Тураев,Masters 45-49,1968-07-07,47,72.6,,,,,,145,155,162.5,162.5,,,,,,,162.5
1,82.5,M,Yes,B,Raw,Andrey Zakirov,Андрей Закиров,Teen 16-17,1998-12-26,16,80.2,,,,,,115,-120,-120,115,,,,,,,115
2,82.5,M,Yes,B,Raw,Maksim Stavitskiy,Максим Ставицкий,Teen 16-17,1999-02-15,16,80.2,,,,,,87.5,95,-102.5,95,,,,,,,95
1,82.5,M,Yes,B,Raw,Vladimir Strelnikov,Владимир Стрельников,Open,1974-10-09,40,82.4,,,,,,155,160,-167.5,160,,,,,,,160
2,82.5,M,Yes,B,Raw,Artem Tikhonkikh,Артем Тихоньких,Open,1986-06-11,29,81.2,,,,,,-155,155,-162.5,155,,,,,,,155
3,82.5,M,Yes,B,Raw,Sergey Ilin,Сергей Ильин,Open,1983-01-28,32,82.5,,,,,,155,-160,-162.5,155,,,,,,,155
4,82.5,M,Yes,B,Raw,Dmitriy Etmanov,Дмитрий Этманов,Open,1989-08-26,25,79.3,,,,,,-125,125,127.5,127.5,,,,,,,127.5
5,82.5,M,Yes,B,Raw,Roman Zvonkov,Роман Звонков,Open,1982-12-16,32,82,,,,,,-127.5,127.5,,127.5,,,,,,,127.5
6,82.5,M,Yes,B,Raw,Aleksandr Oliferov,Александр Олиферов,Open,1985-05-26,30,82.1,,,,,,120,-127.5,-127.5,120,,,,,,,120
7,82.5,M,Yes,B,Raw,Artem Chabannyy,Артем Чабанный,Open,1981-10-13,33,80.8,,,,,,115,-117.5,-117.5,115,,,,,,,115
DQ,82.5,M,Yes,B,Raw,Maksim Abrosimov,Максим Абросимов,Open,1982-01-18,33,81.6,,,,,,-130,,,,,,,,,,
1,82.5,M,Yes,B,Raw,Vladimir Strelnikov,Владимир Стрельников,Masters 40-44,1974-10-09,40,82.4,,,,,,155,160,-167.5,160,,,,,,,160
DQ,90,M,Yes,B,Raw,Leonid Polezhaev,Леонид Полежаев,Teen 16-17,1998-03-28,17,89.5,,,,,,-110,-120,-120,,,,,,,,
1,90,M,Yes,B,Raw,Dmitriy Popov,Дмитрий Попов,Juniors 20-23,1992-07-05,23,88.2,,,,,,135,137.5,-140,137.5,,,,,,,137.5
1,90,M,Yes,B,Raw,Evgeniy Shvetsov,Евгений Швецов,Open,1974-12-20,40,87.2,,,,,,152.5,157.5,165,165,,,,,,,165
2,90,M,Yes,B,Raw,Aleksandr Kichigin,Александр Кичигин,Open,1989-11-21,25,89.3,,,,,,160,-165,-165,160,,,,,,,160
3,90,M,Yes,B,Raw,Ivan Aurov,Иван Ауров,Open,1987-09-09,27,90,,,,,,152.5,157.5,-162.5,157.5,,,,,,,157.5
4,90,M,Yes,B,Raw,Ruslan Kolesov,Руслан Колесов,Open,1987-08-01,28,87.1,,,,,,152.5,-157.5,-157.5,152.5,,,,,,,152.5
5,90,M,Yes,B,Raw,Dmitriy Gumirov,Дмитрий Гумиров,Open,1978-04-23,37,88.8,,,,,,-145,-150,152.5,152.5,,,,,,,152.5
6,90,M,Yes,B,Raw,Boris Lunkin,Борис Лункин,Open,1980-11-25,34,88.9,,,,,,145,152.5,-155,152.5,,,,,,,152.5
7,90,M,Yes,B,Raw,Dmitriy Fedorenko,Дмитрий Федоренко,Open,1982-06-10,33,89,,,,,,145,-152.5,-152.5,145,,,,,,,145
DQ,90,M,Yes,B,Raw,Sergey Valov,Сергей Валов,Open,1979-05-30,36,87.9,,,,,,-132.5,-132.5,-132.5,,,,,,,,
DQ,90,M,Yes,B,Raw,Pavel Strelets,Павел Стрелец,Open,1990-07-25,25,88.2,,,,,,-100,,,,,,,,,,
1,90,M,Yes,B,Raw,Evgeniy Shvetsov,Евгений Швецов,Masters 40-44,1974-12-20,40,87.2,,,,,,152.5,157.5,165,165,,,,,,,165
1,90,M,Yes,B,Raw,Yuriy Azarov,Юрий Азаров,Masters 70-74,1942-01-18,73,83,,,,,,70,80,-90,80,,,,,,,80
1,100,M,Yes,B,Raw,Anatoliy Doletskiy,Анатолий Долецкий,Open,1984-01-27,31,97.1,,,,,,185,192.5,-200,192.5,,,,,,,192.5
2,100,M,Yes,B,Raw,Viktor Andris,Виктор Андрис,Open,1974-11-26,40,95.8,,,,,,170,175,-182.5,175,,,,,,,175
3,100,M,Yes,B,Raw,Oleg Yaupov,Олег Яупов,Open,1980-11-26,34,98.8,,,,,,165,175,-182.5,175,,,,,,,175
4,100,M,Yes,B,Raw,Rafik Ayvazyan,Рафик Оганнисян,Open,1980-12-06,34,94.8,,,,,,-155,155,-162.5,155,,,,,,,155
DQ,100,M,Yes,B,Raw,Vyacheslav Ten,Вячеслав Тен,Open,1987-02-21,28,98.8,,,,,,-175,-175,-177.5,,,,,,,,
1,100,M,Yes,B,Raw,Viktor Andris,Виктор Андрис,Masters 40-44,1974-11-26,40,95.8,,,,,,170,175,-182.5,175,,,,,,,175
2,100,M,Yes,B,Raw,Pavel Evseenko,Павел Евсеенко,Masters 40-44,1970-12-27,44,97.9,,,,,,140,-145,145,145,,,,,,,145
1,110,M,Yes,B,Raw,Konstantin Kolosov,Константин Колосов,Open,1960-08-30,54,101.8,,,,,,140,150,157.5,157.5,,,,,,,157.5
2,110,M,Yes,B,Raw,Aleksandr Moseev,Александр Мосеев,Open,1975-12-07,39,107.9,,,,,,142.5,150,-152.5,150,,,,,,,150
3,110,M,Yes,B,Raw,Aleksandr Khromov,Александр Хромов,Open,1982-04-13,33,101.8,,,,,,145,,-152.5,145,,,,,,,145
1,110,M,Yes,B,Raw,Konstantin Kolosov,Константин Колосов,Masters 50-54,1960-08-30,54,101.8,,,,,,140,150,157.5,157.5,,,,,,,157.5
1,125,M,Yes,B,Raw,Evgeniy Butenko,Евгений Бутенко,Open,1982-10-31,32,118,,,,,,180,195,205,205,,,,,,,205
1,67.5,F,Yes,B,Single-ply,Anna Rudneva,Анна Руднева,Open,1988-05-10,27,62.3,,,,,,82.5,-85,-95,82.5,,,,,,,82.5
1,75,M,Yes,B,Single-ply,Kostas Telidis,Костас Телидис,Open,1989-04-18,26,75,,,,,,225,235,-240,235,,,,,,,235
1,82.5,M,Yes,B,Single-ply,Evgeniy Vdovin,Евгений Вдовин,Open,1979-02-19,36,81.8,,,,,,130,-135,-135,130,,,,,,,130
1,90,M,Yes,B,Single-ply,Ivan Vakulenko,Иван Вакуленко,Open,1985-08-21,29,89.7,,,,,,190,-200,-200,190,,,,,,,190
2,90,M,Yes,B,Single-ply,Pavel Murychev,Павел Мурычев,Open,1989-02-23,26,87.4,,,,,,-175,175,-185,175,,,,,,,175
1,100,M,Yes,B,Single-ply,Andrey Nazarenko,Андрей Назаренко,Open,1986-02-21,29,98.8,,,,,,220,-247.5,-247.5,220,,,,,,,220
