Name,WeightClassKg,Division,Sex,Best3SquatKg,Best3BenchKg,Best3DeadliftKg,TotalKg,Event,Equipment,Place
Allan Eriksson,52,Open,M,182.5,122.5,195,500,SBD,Single-ply,1
Leif Josefsson,52,Open,M,172.5,90,170,432.5,SBD,Single-ply,2
L. Hedlund,52,Open,M,150,90,172.5,412.5,SBD,Single-ply,3
Lars Flyborg,56,Open,M,187.5,110,200,497.5,SBD,Single-ply,1
Mats Forsberg,56,Open,M,190,110,195,495,SBD,Single-ply,2
R. Svensson,56,Open,M,167.5,92.5,212.5,472.5,SBD,Single-ply,3
P. Svantesson,56,Open,M,180,130,155,465,SBD,Single-ply,4
P. Roos,56,Open,M,170,75,197.5,442.5,SBD,Single-ply,5
Göran Henrysson,60,Open,M,210,120,215,545,SBD,Single-ply,1
C. Ulfvengren,60,Open,M,185,90,220,495,SBD,Single-ply,2
R. Ek,60,Open,M,175,105,210,490,SBD,Single-ply,3
R. Andersson,60,Open,M,170,117.5,200,487.5,SBD,Single-ply,4
F. Nilsson,60,Open,M,155,95,220,470,SBD,Single-ply,5
A. Eriksson,60,Open,M,165,105,200,470,SBD,Single-ply,6
B. Eriksson,60,Open,M,,120,,,SBD,Single-ply,DQ
S. Jokitalo,60,Open,M,,,,,SBD,Single-ply,DQ
J. Flansson,67.5,Open,M,225,155,257.5,637.5,SBD,Single-ply,1
M. Johansson,67.5,Open,M,207.5,160,252.5,620,SBD,Single-ply,2
K. Lundgren,67.5,Open,M,245,132.5,240,617.5,SBD,Single-ply,3
R. Carlsson,67.5,Open,M,200,117.5,265,582.5,SBD,Single-ply,4
Ove Nilsson,67.5,Open,M,230,110,240,580,SBD,Single-ply,5
P. Eriksson,67.5,Open,M,190,130,235,555,SBD,Single-ply,6
L. Jansson,67.5,Open,M,215,115,222.5,552.5,SBD,Single-ply,7
T. Hameeniemi,67.5,Open,M,,,,,SBD,Single-ply,DQ
Tapio Pajanen,67.5,Open,M,,,,,SBD,Single-ply,DQ
M. Widmark,67.5,Open,M,,,,,SBD,Single-ply,DQ
Stefan Nentis,75,Open,M,290,165,280,735,SBD,Single-ply,1
Johan Westerberg,75,Open,M,235,182.5,240,657.5,SBD,Single-ply,2
L. Soderlund,75,Open,M,230,140,250,620,SBD,Single-ply,3
P. Akesson,75,Open,M,235,145,237.5,617.5,SBD,Single-ply,4
G. Lundberg,75,Open,M,210,145,240,595,SBD,Single-ply,5
K. Holma,75,Open,M,215,135,245,595,SBD,Single-ply,6
O. Bjerkeryd,75,Open,M,205,142.5,245,592.5,SBD,Single-ply,7
L. Hjertqvist,75,Open,M,215,142.5,230,587.5,SBD,Single-ply,8
Tapio Pajanen,75,Open,M,200,132.5,250,582.5,SBD,Single-ply,9
L. Larsson,75,Open,M,210,130,240,580,SBD,Single-ply,10
Jukka Murtovaara,82.5,Open,M,260,192.5,295,747.5,SBD,Single-ply,1
Lars Backlund,82.5,Open,M,275,190,280,745,SBD,Single-ply,2
K. Kruse,82.5,Open,M,305.5,170,267.5,743,SBD,Single-ply,3
H. Mansson,82.5,Open,M,255,145,295,695,SBD,Single-ply,4
R. Juntunen,82.5,Open,M,245,145,292.5,682.5,SBD,Single-ply,5
L. Dahlberg,82.5,Open,M,265,155,260,680,SBD,Single-ply,6
R. Holmberg,82.5,Open,M,260,150,262.5,672.5,SBD,Single-ply,7
L. Persson,82.5,Open,M,242.5,180,250,672.5,SBD,Single-ply,8
M. Mandic,82.5,Open,M,250,160,255,665,SBD,Single-ply,9
S. Olsson,82.5,Open,M,230,160,270,660,SBD,Single-ply,10
K. Kerber,82.5,Open,M,240,137.5,252.5,630,SBD,Single-ply,11
B. Sundberg,82.5,Open,M,230,162.5,235,627.5,SBD,Single-ply,12
D. Eriksson,82.5,Open,M,250,,,,SBD,Single-ply,DQ
R. Palsson,82.5,Open,M,,,,,SBD,Single-ply,DQ
Z. Radojcovic,82.5,Open,M,,,,,SBD,Single-ply,DQ
Kenneth Mattsson,90,Open,M,312.5,215,317.5,845,SBD,Single-ply,1
Ove Eriksson,90,Open,M,295,187.5,325,807.5,SBD,Single-ply,2
Johnny Persson,90,Open,M,297.5,202.5,305,805,SBD,Single-ply,3
J. Melander,90,Open,M,282.5,157.5,320,760,SBD,Single-ply,4
A. Aalto,90,Open,M,287.5,172.5,300,760,SBD,Single-ply,5
A. Regnander,90,Open,M,280,185,280,745,SBD,Single-ply,6
H. Pappila,90,Open,M,270,160,300,730,SBD,Single-ply,7
B. Skoglund,90,Open,M,275,172.5,280,727.5,SBD,Single-ply,8
M. Bergstedt,90,Open,M,280,160,280,720,SBD,Single-ply,9
M. Kahkonen,90,Open,M,240,140,280,660,SBD,Single-ply,10
P. Heiskanen,90,Open,M,265,175,,,SBD,Single-ply,DQ
K. Kolthoff,90,Open,M,,,,,SBD,Single-ply,DQ
Conny Nilsson,100,Open,M,340,200,320,860,SBD,Single-ply,1
Erik Johansson,100,Open,M,300,192.5,312.5,805,SBD,Single-ply,2
T. Barkovic,100,Open,M,305,197.5,302.5,805,SBD,Single-ply,3
B. Sorensen,100,Open,M,310,170,272.5,752.5,SBD,Single-ply,4
C. Nilsson,100,Open,M,280,190,270,740,SBD,Single-ply,5
Samuli Kivi,110,Open,M,342.5,207.5,342.5,892.5,SBD,Single-ply,1
L. Ernbom,110,Open,M,305,175,343,823,SBD,Single-ply,2
H. Rubert,110,Open,M,287.5,200,302.5,790,SBD,Single-ply,3
Peter Svedin,110,Open,M,280,215,295,790,SBD,Single-ply,4
Yngve Gustafsson,110,Open,M,300,180,277.5,757.5,SBD,Single-ply,5
D. Oscarsson,110,Open,M,260,160,310,730,SBD,Single-ply,6
Thomas Stenlund,110,Open,M,270,155,280,705,SBD,Single-ply,7
Ray Yvander,110,Open,M,340,,,,SBD,Single-ply,DQ
Roger Ekström,125,Open,M,325,217.5,315,857.5,SBD,Single-ply,1
K. Karlsson,125,Open,M,290,190,300,780,SBD,Single-ply,2
F. Nisbeth,125,Open,M,307.5,200,270,777.5,SBD,Single-ply,3
C. Sjolen,125,Open,M,290,160,310,760,SBD,Single-ply,4
C. Trygg,125,Open,M,,,,,SBD,Single-ply,DQ
Karl Sjölin,125+,Open,M,345,225,307.5,877.5,SBD,Single-ply,1
Leif Nordmark,125+,Open,M,345,225,302.5,872.5,SBD,Single-ply,2
G. Jeppsson,125+,Open,M,335,195,315,845,SBD,Single-ply,3
L. Wigholm,125+,Open,M,280,210,310,800,SBD,Single-ply,4
C. Olsson,125+,Open,M,302.5,155,305,762.5,SBD,Single-ply,5
